2019-11-27T00:33:56.7614214+07:00 80000002-0001-ff00-b63f-84710c7967bb [INF] Request starting HTTP/2.0 GET https://localhost:44360/swagger   (ca22a1cb)
2019-11-27T00:33:58.7710782+07:00 80000004-0001-ff00-b63f-84710c7967bb [INF] Request starting HTTP/2.0 GET https://localhost:44360/swagger/index.html   (ca22a1cb)
2019-11-27T00:33:58.7903830+07:00 80000002-0001-ff00-b63f-84710c7967bb [INF] Request finished in 2019.719ms 301  (791a596a)
2019-11-27T00:33:58.9249211+07:00 80000004-0001-ff00-b63f-84710c7967bb [INF] Request finished in 158.192ms 200 text/html (791a596a)
2019-11-27T00:33:58.9954087+07:00 80000003-0007-ff00-b63f-84710c7967bb [INF] Request starting HTTP/2.0 GET https://localhost:44360/swagger/swagger-ui-bundle.js   (ca22a1cb)
2019-11-27T00:33:58.9982354+07:00 80000002-0004-ff00-b63f-84710c7967bb [INF] Request starting HTTP/2.0 GET https://localhost:44360/swagger/swagger-ui.css   (ca22a1cb)
2019-11-27T00:33:59.0020338+07:00 80000002-0005-ff00-b63f-84710c7967bb [INF] Request starting HTTP/2.0 GET https://localhost:44360/swagger/swagger-ui-standalone-preset.js   (ca22a1cb)
2019-11-27T00:33:59.0518517+07:00 80000002-0004-ff00-b63f-84710c7967bb [INF] Sending file. Request path: '"/swagger-ui.css"'. Physical path: '"N/A"' (27b0a520)
2019-11-27T00:33:59.0583744+07:00 80000002-0005-ff00-b63f-84710c7967bb [INF] Sending file. Request path: '"/swagger-ui-standalone-preset.js"'. Physical path: '"N/A"' (27b0a520)
2019-11-27T00:33:59.0765965+07:00 80000002-0004-ff00-b63f-84710c7967bb [INF] Request finished in 81.0108ms 200 text/css (791a596a)
2019-11-27T00:33:59.0788520+07:00 80000002-0005-ff00-b63f-84710c7967bb [INF] Request finished in 81.0411ms 200 application/javascript (791a596a)
2019-11-27T00:33:59.0811321+07:00 80000003-0007-ff00-b63f-84710c7967bb [INF] Sending file. Request path: '"/swagger-ui-bundle.js"'. Physical path: '"N/A"' (27b0a520)
2019-11-27T00:33:59.0942853+07:00 80000003-0007-ff00-b63f-84710c7967bb [INF] Request finished in 88.7443ms 200 application/javascript (791a596a)
2019-11-27T00:33:59.4627854+07:00 80000002-0006-fb00-b63f-84710c7967bb [INF] Request starting HTTP/2.0 GET https://localhost:44360/swagger/v1/swagger.json   (ca22a1cb)
2019-11-27T00:33:59.5244977+07:00 80000002-0002-fd00-b63f-84710c7967bb [INF] Request starting HTTP/2.0 GET https://localhost:44360/swagger/favicon-32x32.png   (ca22a1cb)
2019-11-27T00:33:59.5284700+07:00 80000002-0002-fd00-b63f-84710c7967bb [INF] Sending file. Request path: '"/favicon-32x32.png"'. Physical path: '"N/A"' (27b0a520)
2019-11-27T00:33:59.5320891+07:00 80000002-0002-fd00-b63f-84710c7967bb [INF] Request finished in 7.7284ms 200 image/png (791a596a)
2019-11-27T00:33:59.6300360+07:00 80000002-0006-fb00-b63f-84710c7967bb [INF] Request finished in 166.7675ms 200 application/json;charset=utf-8 (791a596a)
2019-11-27T10:45:18.6507515+07:00 80000006-0004-ff00-b63f-84710c7967bb [INF] Request starting HTTP/2.0 GET https://localhost:44360/swagger   (ca22a1cb)
2019-11-27T10:45:18.8734383+07:00 80000002-0003-ff00-b63f-84710c7967bb [INF] Request starting HTTP/2.0 GET https://localhost:44360/swagger/index.html   (ca22a1cb)
2019-11-27T10:45:18.9148368+07:00 80000006-0004-ff00-b63f-84710c7967bb [INF] Request finished in 267.4544ms 301  (791a596a)
2019-11-27T10:45:19.0487120+07:00 80000002-0003-ff00-b63f-84710c7967bb [INF] Request finished in 176.3219ms 200 text/html (791a596a)
2019-11-27T10:45:19.1175543+07:00 80000002-0000-fd00-b63f-84710c7967bb [INF] Request starting HTTP/2.0 GET https://localhost:44360/swagger/swagger-ui.css   (ca22a1cb)
2019-11-27T10:45:19.1209651+07:00 80000008-0004-ff00-b63f-84710c7967bb [INF] Request starting HTTP/2.0 GET https://localhost:44360/swagger/swagger-ui-bundle.js   (ca22a1cb)
2019-11-27T10:45:19.1235358+07:00 80000004-0003-ff00-b63f-84710c7967bb [INF] Request starting HTTP/2.0 GET https://localhost:44360/swagger/swagger-ui-standalone-preset.js   (ca22a1cb)
2019-11-27T10:45:19.1686200+07:00 80000002-0000-fd00-b63f-84710c7967bb [INF] Sending file. Request path: '"/swagger-ui.css"'. Physical path: '"N/A"' (27b0a520)
2019-11-27T10:45:19.1718908+07:00 80000004-0003-ff00-b63f-84710c7967bb [INF] Sending file. Request path: '"/swagger-ui-standalone-preset.js"'. Physical path: '"N/A"' (27b0a520)
2019-11-27T10:45:19.1883891+07:00 80000002-0000-fd00-b63f-84710c7967bb [INF] Request finished in 69.9716ms 200 text/css (791a596a)
2019-11-27T10:45:19.1901169+07:00 80000004-0003-ff00-b63f-84710c7967bb [INF] Request finished in 70.0156ms 200 application/javascript (791a596a)
2019-11-27T10:45:19.2158038+07:00 80000008-0004-ff00-b63f-84710c7967bb [INF] Sending file. Request path: '"/swagger-ui-bundle.js"'. Physical path: '"N/A"' (27b0a520)
2019-11-27T10:45:19.2187904+07:00 80000008-0004-ff00-b63f-84710c7967bb [INF] Request finished in 101.0494ms 200 application/javascript (791a596a)
2019-11-27T10:45:19.7703987+07:00 80000004-0005-ff00-b63f-84710c7967bb [INF] Request starting HTTP/2.0 GET https://localhost:44360/swagger/v1/swagger.json   (ca22a1cb)
2019-11-27T10:45:19.8379898+07:00 80000005-0002-ff00-b63f-84710c7967bb [INF] Request starting HTTP/2.0 GET https://localhost:44360/swagger/favicon-32x32.png   (ca22a1cb)
2019-11-27T10:45:19.8423372+07:00 80000005-0002-ff00-b63f-84710c7967bb [INF] Sending file. Request path: '"/favicon-32x32.png"'. Physical path: '"N/A"' (27b0a520)
2019-11-27T10:45:19.8447594+07:00 80000005-0002-ff00-b63f-84710c7967bb [INF] Request finished in 7.4184ms 200 image/png (791a596a)
2019-11-27T10:45:20.0197445+07:00 80000004-0005-ff00-b63f-84710c7967bb [INF] Request finished in 249.5578ms 200 application/json;charset=utf-8 (791a596a)
2019-11-27T10:46:21.8059762+07:00 80000005-0007-ff00-b63f-84710c7967bb [INF] Request starting HTTP/2.0 GET https://localhost:44360/swagger/index.html   (ca22a1cb)
2019-11-27T10:46:22.0008697+07:00 80000005-0007-ff00-b63f-84710c7967bb [INF] Request finished in 198.4574ms 200 text/html (791a596a)
2019-11-27T10:46:22.4880242+07:00 80000007-0002-ff00-b63f-84710c7967bb [INF] Request starting HTTP/2.0 GET https://localhost:44360/swagger/v1/swagger.json   (ca22a1cb)
2019-11-27T10:46:22.6512938+07:00 80000007-0002-ff00-b63f-84710c7967bb [INF] Request finished in 162.8344ms 200 application/json;charset=utf-8 (791a596a)
2019-11-27T10:47:35.6009806+07:00 80000007-0007-ff00-b63f-84710c7967bb [INF] Request starting HTTP/2.0 POST https://localhost:44360/api/accounts/register application/json-patch+json 189 (ca22a1cb)
2019-11-27T10:47:35.6040789+07:00 80000007-0007-ff00-b63f-84710c7967bb [INF] CORS policy execution successful. (5409d6ef)
2019-11-27T10:47:35.6149745+07:00 80000007-0007-ff00-b63f-84710c7967bb [INF] Executing endpoint '"Admin_Core.Controllers.AccountController.Register (Admin-Core)"' (500cc934)
2019-11-27T10:47:35.6529943+07:00 80000007-0007-ff00-b63f-84710c7967bb [INF] Route matched with "{action = \"Register\", controller = \"Account\"}". Executing controller action with signature "Microsoft.AspNetCore.Mvc.IActionResult Register(Admin_Core.Models.AccountModels.RegisterModel)" on controller "Admin_Core.Controllers.AccountController" ("Admin-Core"). (122b2fdf)
2019-11-27T10:47:36.0925115+07:00 80000007-0007-ff00-b63f-84710c7967bb [INF] Entity Framework Core "2.2.6-servicing-10079" initialized '"AdminDataContext"' using provider '"Microsoft.EntityFrameworkCore.SqlServer"' with options: "None" (9958f5bb)
2019-11-27T10:47:36.1342029+07:00 80000007-0007-ff00-b63f-84710c7967bb [INF] Entity Framework Core "2.2.6-servicing-10079" initialized '"AdminDataContext"' using provider '"Microsoft.EntityFrameworkCore.SqlServer"' with options: "None" (9958f5bb)
2019-11-27T10:47:36.1972762+07:00 80000007-0007-ff00-b63f-84710c7967bb [INF] Executing action method "Admin_Core.Controllers.AccountController.Register (Admin-Core)" - Validation state: Valid (dad538d7)
2019-11-27T10:47:37.0129703+07:00 80000007-0007-ff00-b63f-84710c7967bb [INF] Executed DbCommand ("68"ms) [Parameters=["@p0='?' (DbType = DateTime2), @p1='?' (Size = 256), @p2='?' (Size = 256), @p3='?' (DbType = Int32), @p4='?' (DbType = Boolean), @p5='?' (Size = 16), @p6='?' (Size = 256), @p7='?' (Size = 128)"], CommandType='Text', CommandTimeout='30']"
""SET NOCOUNT ON;
INSERT INTO [Users] ([DoB], [Email], [EmailOptIn], [Gender], [IsDeleted], [MobileNumber], [Name], [Password])
VALUES (@p0, @p1, @p2, @p3, @p4, @p5, @p6, @p7);
SELECT [ID]
FROM [Users]
WHERE @@ROWCOUNT = 1 AND [ID] = scope_identity();" (0723d8ff)
2019-11-27T10:47:37.2325264+07:00 80000007-0007-ff00-b63f-84710c7967bb [INF] Executed action method "Admin_Core.Controllers.AccountController.Register (Admin-Core)", returned result "Microsoft.AspNetCore.Mvc.OkObjectResult" in 1014.4601ms. (50a9e262)
2019-11-27T10:47:37.2474742+07:00 80000007-0007-ff00-b63f-84710c7967bb [INF] Executing ObjectResult, writing value of type '"Admin_Core.Models.ApiResponseModel"'. (8a1b66c8)
2019-11-27T10:47:37.2694289+07:00 80000007-0007-ff00-b63f-84710c7967bb [INF] Executed action "Admin_Core.Controllers.AccountController.Register (Admin-Core)" in 1610.5762ms (afa2e885)
2019-11-27T10:47:37.2713337+07:00 80000007-0007-ff00-b63f-84710c7967bb [INF] Executed endpoint '"Admin_Core.Controllers.AccountController.Register (Admin-Core)"' (99874f2b)
2019-11-27T10:47:37.2738824+07:00 80000007-0007-ff00-b63f-84710c7967bb [INF] Request finished in 1672.9494ms 200 application/json; charset=utf-8 (791a596a)
2019-11-27T10:52:13.0462449+07:00 8000000a-0004-ff00-b63f-84710c7967bb [INF] Request starting HTTP/2.0 GET https://localhost:44360/swagger/index.html   (ca22a1cb)
2019-11-27T10:52:13.2407706+07:00 8000000a-0004-ff00-b63f-84710c7967bb [INF] Request finished in 199.5879ms 200 text/html (791a596a)
2019-11-27T10:52:13.6174163+07:00 80000004-0002-fd00-b63f-84710c7967bb [INF] Request starting HTTP/2.0 GET https://localhost:44360/swagger/v1/swagger.json   (ca22a1cb)
2019-11-27T10:52:13.7696702+07:00 80000004-0002-fd00-b63f-84710c7967bb [INF] Request finished in 151.4698ms 200 application/json;charset=utf-8 (791a596a)
2019-11-27T10:52:27.0355732+07:00 80000004-0006-fb00-b63f-84710c7967bb [INF] Request starting HTTP/2.0 POST https://localhost:44360/api/accounts/register application/json-patch+json 189 (ca22a1cb)
2019-11-27T10:52:27.0400794+07:00 80000004-0006-fb00-b63f-84710c7967bb [INF] CORS policy execution successful. (5409d6ef)
2019-11-27T10:52:27.0510122+07:00 80000004-0006-fb00-b63f-84710c7967bb [INF] Executing endpoint '"Admin_Core.Controllers.AccountController.Register (Admin-Core)"' (500cc934)
2019-11-27T10:52:27.0796477+07:00 80000004-0006-fb00-b63f-84710c7967bb [INF] Route matched with "{action = \"Register\", controller = \"Account\"}". Executing controller action with signature "Microsoft.AspNetCore.Mvc.IActionResult Register(Admin_Core.Models.AccountModels.RegisterModel)" on controller "Admin_Core.Controllers.AccountController" ("Admin-Core"). (122b2fdf)
2019-11-27T10:52:27.3209306+07:00 80000004-0006-fb00-b63f-84710c7967bb [INF] Entity Framework Core "2.2.6-servicing-10079" initialized '"AdminDataContext"' using provider '"Microsoft.EntityFrameworkCore.SqlServer"' with options: "None" (9958f5bb)
2019-11-27T10:52:27.3289576+07:00 80000004-0006-fb00-b63f-84710c7967bb [INF] Entity Framework Core "2.2.6-servicing-10079" initialized '"AdminDataContext"' using provider '"Microsoft.EntityFrameworkCore.SqlServer"' with options: "None" (9958f5bb)
2019-11-27T10:52:27.3800123+07:00 80000004-0006-fb00-b63f-84710c7967bb [INF] Executing action method "Admin_Core.Controllers.AccountController.Register (Admin-Core)" - Validation state: Valid (dad538d7)
2019-11-27T10:52:28.0517178+07:00 80000004-0006-fb00-b63f-84710c7967bb [INF] Executed DbCommand ("67"ms) [Parameters=["@p0='?' (DbType = DateTime2), @p1='?' (Size = 256), @p2='?' (Size = 256), @p3='?' (DbType = Int32), @p4='?' (DbType = Boolean), @p5='?' (Size = 16), @p6='?' (Size = 256), @p7='?' (Size = 128)"], CommandType='Text', CommandTimeout='30']"
""SET NOCOUNT ON;
INSERT INTO [Users] ([DoB], [Email], [EmailOptIn], [Gender], [IsDeleted], [MobileNumber], [Name], [Password])
VALUES (@p0, @p1, @p2, @p3, @p4, @p5, @p6, @p7);
SELECT [ID]
FROM [Users]
WHERE @@ROWCOUNT = 1 AND [ID] = scope_identity();" (0723d8ff)
2019-11-27T10:52:28.1464063+07:00 80000004-0006-fb00-b63f-84710c7967bb [INF] Executed action method "Admin_Core.Controllers.AccountController.Register (Admin-Core)", returned result "Microsoft.AspNetCore.Mvc.OkObjectResult" in 756.8983ms. (50a9e262)
2019-11-27T10:52:28.1541322+07:00 80000004-0006-fb00-b63f-84710c7967bb [INF] Executing ObjectResult, writing value of type '"Admin_Core.Models.ApiResponseModel"'. (8a1b66c8)
2019-11-27T10:52:28.1715696+07:00 80000004-0006-fb00-b63f-84710c7967bb [INF] Executed action "Admin_Core.Controllers.AccountController.Register (Admin-Core)" in 1086.1708ms (afa2e885)
2019-11-27T10:52:28.1733591+07:00 80000004-0006-fb00-b63f-84710c7967bb [INF] Executed endpoint '"Admin_Core.Controllers.AccountController.Register (Admin-Core)"' (99874f2b)
2019-11-27T10:52:28.1791263+07:00 80000004-0006-fb00-b63f-84710c7967bb [INF] Request finished in 1143.5252ms 200 application/json; charset=utf-8 (791a596a)
2019-11-27T10:53:55.0449283+07:00 80000006-0001-ff00-b63f-84710c7967bb [INF] Request starting HTTP/2.0 POST https://localhost:44360/api/accounts/register application/json-patch+json 189 (ca22a1cb)
2019-11-27T10:53:55.0468811+07:00 80000006-0001-ff00-b63f-84710c7967bb [INF] CORS policy execution successful. (5409d6ef)
2019-11-27T10:53:55.0504161+07:00 80000006-0001-ff00-b63f-84710c7967bb [INF] Executing endpoint '"Admin_Core.Controllers.AccountController.Register (Admin-Core)"' (500cc934)
2019-11-27T10:53:55.0528478+07:00 80000006-0001-ff00-b63f-84710c7967bb [INF] Route matched with "{action = \"Register\", controller = \"Account\"}". Executing controller action with signature "Microsoft.AspNetCore.Mvc.IActionResult Register(Admin_Core.Models.AccountModels.RegisterModel)" on controller "Admin_Core.Controllers.AccountController" ("Admin-Core"). (122b2fdf)
2019-11-27T10:53:55.0713826+07:00 80000006-0001-ff00-b63f-84710c7967bb [INF] Entity Framework Core "2.2.6-servicing-10079" initialized '"AdminDataContext"' using provider '"Microsoft.EntityFrameworkCore.SqlServer"' with options: "None" (9958f5bb)
2019-11-27T10:53:55.0744828+07:00 80000006-0001-ff00-b63f-84710c7967bb [INF] Entity Framework Core "2.2.6-servicing-10079" initialized '"AdminDataContext"' using provider '"Microsoft.EntityFrameworkCore.SqlServer"' with options: "None" (9958f5bb)
2019-11-27T10:53:55.0799054+07:00 80000006-0001-ff00-b63f-84710c7967bb [INF] Executing action method "Admin_Core.Controllers.AccountController.Register (Admin-Core)" - Validation state: Valid (dad538d7)
2019-11-27T10:53:55.2082726+07:00 80000006-0001-ff00-b63f-84710c7967bb [INF] Executed DbCommand ("60"ms) [Parameters=["@p0='?' (DbType = DateTime2), @p1='?' (Size = 256), @p2='?' (Size = 256), @p3='?' (DbType = Int32), @p4='?' (DbType = Boolean), @p5='?' (Size = 16), @p6='?' (Size = 256), @p7='?' (Size = 128)"], CommandType='Text', CommandTimeout='30']"
""SET NOCOUNT ON;
INSERT INTO [Users] ([DoB], [Email], [EmailOptIn], [Gender], [IsDeleted], [MobileNumber], [Name], [Password])
VALUES (@p0, @p1, @p2, @p3, @p4, @p5, @p6, @p7);
SELECT [ID]
FROM [Users]
WHERE @@ROWCOUNT = 1 AND [ID] = scope_identity();" (0723d8ff)
2019-11-27T10:53:55.2811842+07:00 80000006-0001-ff00-b63f-84710c7967bb [INF] Executed action method "Admin_Core.Controllers.AccountController.Register (Admin-Core)", returned result "Microsoft.AspNetCore.Mvc.OkObjectResult" in 199.0456ms. (50a9e262)
2019-11-27T10:53:55.2834317+07:00 80000006-0001-ff00-b63f-84710c7967bb [INF] Executing ObjectResult, writing value of type '"Admin_Core.Models.ApiResponseModel"'. (8a1b66c8)
2019-11-27T10:53:55.2861285+07:00 80000006-0001-ff00-b63f-84710c7967bb [INF] Executed action "Admin_Core.Controllers.AccountController.Register (Admin-Core)" in 231.0715ms (afa2e885)
2019-11-27T10:53:55.2881264+07:00 80000006-0001-ff00-b63f-84710c7967bb [INF] Executed endpoint '"Admin_Core.Controllers.AccountController.Register (Admin-Core)"' (99874f2b)
2019-11-27T10:53:55.2899351+07:00 80000006-0001-ff00-b63f-84710c7967bb [INF] Request finished in 245.3655ms 200 application/json; charset=utf-8 (791a596a)
2019-11-27T10:54:48.1389302+07:00 80000006-0006-fb00-b63f-84710c7967bb [INF] Request starting HTTP/2.0 GET https://localhost:44360/swagger/index.html   (ca22a1cb)
2019-11-27T10:54:48.3158225+07:00 80000006-0006-fb00-b63f-84710c7967bb [INF] Request finished in 180.4879ms 200 text/html (791a596a)
2019-11-27T10:54:48.6737744+07:00 80000008-0006-fb00-b63f-84710c7967bb [INF] Request starting HTTP/2.0 GET https://localhost:44360/swagger/v1/swagger.json   (ca22a1cb)
2019-11-27T10:54:48.8502430+07:00 80000008-0006-fb00-b63f-84710c7967bb [INF] Request finished in 172.7249ms 200 application/json;charset=utf-8 (791a596a)
2019-11-27T10:55:04.9171676+07:00 80000008-0001-ff00-b63f-84710c7967bb [INF] Request starting HTTP/2.0 POST https://localhost:44360/api/accounts/register application/json-patch+json 189 (ca22a1cb)
2019-11-27T10:55:04.9237799+07:00 80000008-0001-ff00-b63f-84710c7967bb [INF] CORS policy execution successful. (5409d6ef)
2019-11-27T10:55:04.9314870+07:00 80000008-0001-ff00-b63f-84710c7967bb [INF] Executing endpoint '"Admin_Core.Controllers.AccountController.Register (Admin-Core)"' (500cc934)
2019-11-27T10:55:04.9651057+07:00 80000008-0001-ff00-b63f-84710c7967bb [INF] Route matched with "{action = \"Register\", controller = \"Account\"}". Executing controller action with signature "Microsoft.AspNetCore.Mvc.IActionResult Register(Admin_Core.Models.AccountModels.RegisterModel)" on controller "Admin_Core.Controllers.AccountController" ("Admin-Core"). (122b2fdf)
2019-11-27T10:55:05.2280543+07:00 80000008-0001-ff00-b63f-84710c7967bb [INF] Entity Framework Core "2.2.6-servicing-10079" initialized '"AdminDataContext"' using provider '"Microsoft.EntityFrameworkCore.SqlServer"' with options: "None" (9958f5bb)
2019-11-27T10:55:05.2384114+07:00 80000008-0001-ff00-b63f-84710c7967bb [INF] Entity Framework Core "2.2.6-servicing-10079" initialized '"AdminDataContext"' using provider '"Microsoft.EntityFrameworkCore.SqlServer"' with options: "None" (9958f5bb)
2019-11-27T10:55:05.3067695+07:00 80000008-0001-ff00-b63f-84710c7967bb [INF] Executing action method "Admin_Core.Controllers.AccountController.Register (Admin-Core)" - Validation state: Valid (dad538d7)
2019-11-27T10:55:12.5699030+07:00 80000008-0001-ff00-b63f-84710c7967bb [INF] Executed DbCommand ("61"ms) [Parameters=["@p0='?' (DbType = DateTime2), @p1='?' (Size = 256), @p2='?' (Size = 256), @p3='?' (DbType = Int32), @p4='?' (DbType = Boolean), @p5='?' (Size = 16), @p6='?' (Size = 256), @p7='?' (Size = 128)"], CommandType='Text', CommandTimeout='30']"
""SET NOCOUNT ON;
INSERT INTO [Users] ([DoB], [Email], [EmailOptIn], [Gender], [IsDeleted], [MobileNumber], [Name], [Password])
VALUES (@p0, @p1, @p2, @p3, @p4, @p5, @p6, @p7);
SELECT [ID]
FROM [Users]
WHERE @@ROWCOUNT = 1 AND [ID] = scope_identity();" (0723d8ff)
2019-11-27T10:55:12.6722412+07:00 80000008-0001-ff00-b63f-84710c7967bb [INF] Executed action method "Admin_Core.Controllers.AccountController.Register (Admin-Core)", returned result "Microsoft.AspNetCore.Mvc.OkObjectResult" in 7353.8027ms. (50a9e262)
2019-11-27T10:55:12.6913378+07:00 80000008-0001-ff00-b63f-84710c7967bb [INF] Executing ObjectResult, writing value of type '"Admin_Core.Models.ApiResponseModel"'. (8a1b66c8)
2019-11-27T10:55:12.7099051+07:00 80000008-0001-ff00-b63f-84710c7967bb [INF] Executed action "Admin_Core.Controllers.AccountController.Register (Admin-Core)" in 7737.5152ms (afa2e885)
2019-11-27T10:55:12.7132260+07:00 80000008-0001-ff00-b63f-84710c7967bb [INF] Executed endpoint '"Admin_Core.Controllers.AccountController.Register (Admin-Core)"' (99874f2b)
2019-11-27T10:55:12.7166671+07:00 80000008-0001-ff00-b63f-84710c7967bb [INF] Request finished in 7800.0838ms 200 application/json; charset=utf-8 (791a596a)
2019-11-27T10:56:27.9131039+07:00 80000006-0003-ff00-b63f-84710c7967bb [INF] Request starting HTTP/2.0 GET https://localhost:44360/swagger/index.html   (ca22a1cb)
2019-11-27T10:56:28.3300807+07:00 80000006-0003-ff00-b63f-84710c7967bb [INF] Request finished in 421.5769ms 200 text/html (791a596a)
2019-11-27T10:56:29.0539053+07:00 8000000a-0006-fb00-b63f-84710c7967bb [INF] Request starting HTTP/2.0 GET https://localhost:44360/swagger/v1/swagger.json   (ca22a1cb)
2019-11-27T10:56:29.1958297+07:00 8000000a-0006-fb00-b63f-84710c7967bb [INF] Request finished in 142.3845ms 200 application/json;charset=utf-8 (791a596a)
2019-11-27T10:56:43.5074989+07:00 8000000c-0004-ff00-b63f-84710c7967bb [INF] Request starting HTTP/2.0 GET https://localhost:44360/api/accounts/4   (ca22a1cb)
2019-11-27T10:56:43.5183369+07:00 8000000c-0004-ff00-b63f-84710c7967bb [INF] Executing endpoint '"Admin_Core.Controllers.AccountController.Profile (Admin-Core)"' (500cc934)
2019-11-27T10:56:43.5520033+07:00 8000000c-0004-ff00-b63f-84710c7967bb [INF] Route matched with "{action = \"Profile\", controller = \"Account\"}". Executing controller action with signature "Microsoft.AspNetCore.Mvc.IActionResult Profile(Int32)" on controller "Admin_Core.Controllers.AccountController" ("Admin-Core"). (122b2fdf)
2019-11-27T10:56:43.5652624+07:00 8000000c-0004-ff00-b63f-84710c7967bb [INF] Authorization failed. (b15dd539)
2019-11-27T10:56:43.5673794+07:00 8000000c-0004-ff00-b63f-84710c7967bb [INF] Authorization failed for the request at filter '"Microsoft.AspNetCore.Mvc.Authorization.AuthorizeFilter"'. (8b6446cb)
2019-11-27T10:56:43.5751292+07:00 8000000c-0004-ff00-b63f-84710c7967bb [INF] Executing ChallengeResult with authentication schemes ([]). (f3dca807)
2019-11-27T10:56:43.5837548+07:00 8000000c-0004-ff00-b63f-84710c7967bb [INF] AuthenticationScheme: "Bearer" was challenged. (d45f1f38)
2019-11-27T10:56:43.5886409+07:00 8000000c-0004-ff00-b63f-84710c7967bb [INF] Executed action "Admin_Core.Controllers.AccountController.Profile (Admin-Core)" in 31.8783ms (afa2e885)
2019-11-27T10:56:43.5906470+07:00 8000000c-0004-ff00-b63f-84710c7967bb [INF] Executed endpoint '"Admin_Core.Controllers.AccountController.Profile (Admin-Core)"' (99874f2b)
2019-11-27T10:56:43.5965374+07:00 8000000c-0004-ff00-b63f-84710c7967bb [INF] Request finished in 89.0286ms 401  (791a596a)
2019-11-27T10:57:10.8136554+07:00 8000000c-0006-fb00-b63f-84710c7967bb [INF] Request starting HTTP/2.0 POST https://localhost:44360/api/accounts/login application/json-patch+json 54 (ca22a1cb)
2019-11-27T10:57:10.8176679+07:00 8000000c-0006-fb00-b63f-84710c7967bb [INF] CORS policy execution successful. (5409d6ef)
2019-11-27T10:57:10.8211410+07:00 8000000c-0006-fb00-b63f-84710c7967bb [INF] Executing endpoint '"Admin_Core.Controllers.AccountController.Login (Admin-Core)"' (500cc934)
2019-11-27T10:57:10.8265400+07:00 8000000c-0006-fb00-b63f-84710c7967bb [INF] Route matched with "{action = \"Login\", controller = \"Account\"}". Executing controller action with signature "Microsoft.AspNetCore.Mvc.IActionResult Login(Admin_Core.Models.AccountModels.LoginModel)" on controller "Admin_Core.Controllers.AccountController" ("Admin-Core"). (122b2fdf)
2019-11-27T10:57:11.0311968+07:00 8000000c-0006-fb00-b63f-84710c7967bb [INF] Entity Framework Core "2.2.6-servicing-10079" initialized '"AdminDataContext"' using provider '"Microsoft.EntityFrameworkCore.SqlServer"' with options: "None" (9958f5bb)
2019-11-27T10:57:11.0399133+07:00 8000000c-0006-fb00-b63f-84710c7967bb [INF] Entity Framework Core "2.2.6-servicing-10079" initialized '"AdminDataContext"' using provider '"Microsoft.EntityFrameworkCore.SqlServer"' with options: "None" (9958f5bb)
2019-11-27T10:57:11.1063363+07:00 8000000c-0006-fb00-b63f-84710c7967bb [INF] Executing action method "Admin_Core.Controllers.AccountController.Login (Admin-Core)" - Validation state: Valid (dad538d7)
2019-11-27T10:57:11.8236069+07:00 8000000c-0006-fb00-b63f-84710c7967bb [INF] Executed DbCommand ("83"ms) [Parameters=["@__email_0='?' (Size = 256)"], CommandType='Text', CommandTimeout='30']"
""SELECT TOP(1) [item].[ID], [item].[DoB], [item].[Email], [item].[EmailOptIn], [item].[Gender], [item].[IsDeleted], [item].[MobileNumber], [item].[Name], [item].[Password]
FROM [Users] AS [item]
WHERE ([item].[IsDeleted] = 0) AND ([item].[Email] = @__email_0)" (0723d8ff)
2019-11-27T10:57:11.9335653+07:00 8000000c-0006-fb00-b63f-84710c7967bb [INF] Executed action method "Admin_Core.Controllers.AccountController.Login (Admin-Core)", returned result "Microsoft.AspNetCore.Mvc.OkObjectResult" in 821.9505ms. (50a9e262)
2019-11-27T10:57:11.9394500+07:00 8000000c-0006-fb00-b63f-84710c7967bb [INF] Executing ObjectResult, writing value of type '"Admin_Core.Models.ApiResponseModel"'. (8a1b66c8)
2019-11-27T10:57:11.9545288+07:00 8000000c-0006-fb00-b63f-84710c7967bb [INF] Executed action "Admin_Core.Controllers.AccountController.Login (Admin-Core)" in 1125.2081ms (afa2e885)
2019-11-27T10:57:11.9568821+07:00 8000000c-0006-fb00-b63f-84710c7967bb [INF] Executed endpoint '"Admin_Core.Controllers.AccountController.Login (Admin-Core)"' (99874f2b)
2019-11-27T10:57:11.9624843+07:00 8000000c-0006-fb00-b63f-84710c7967bb [INF] Request finished in 1146.7535ms 200 application/json; charset=utf-8 (791a596a)
2019-11-27T10:57:36.8879056+07:00 8000000e-0004-ff00-b63f-84710c7967bb [INF] Request starting HTTP/2.0 GET https://localhost:44360/api/accounts/4   (ca22a1cb)
2019-11-27T10:57:36.9021487+07:00 8000000e-0004-ff00-b63f-84710c7967bb [INF] Successfully validated the token. (60169667)
2019-11-27T10:57:36.9161155+07:00 8000000e-0004-ff00-b63f-84710c7967bb [INF] Executing endpoint '"Admin_Core.Controllers.AccountController.Profile (Admin-Core)"' (500cc934)
2019-11-27T10:57:36.9200045+07:00 8000000e-0004-ff00-b63f-84710c7967bb [INF] Route matched with "{action = \"Profile\", controller = \"Account\"}". Executing controller action with signature "Microsoft.AspNetCore.Mvc.IActionResult Profile(Int32)" on controller "Admin_Core.Controllers.AccountController" ("Admin-Core"). (122b2fdf)
2019-11-27T10:57:36.9232589+07:00 8000000e-0004-ff00-b63f-84710c7967bb [INF] Authorization was successful. (0d575a54)
2019-11-27T10:57:36.9277535+07:00 8000000e-0004-ff00-b63f-84710c7967bb [INF] Entity Framework Core "2.2.6-servicing-10079" initialized '"AdminDataContext"' using provider '"Microsoft.EntityFrameworkCore.SqlServer"' with options: "None" (9958f5bb)
2019-11-27T10:57:36.9313885+07:00 8000000e-0004-ff00-b63f-84710c7967bb [INF] Entity Framework Core "2.2.6-servicing-10079" initialized '"AdminDataContext"' using provider '"Microsoft.EntityFrameworkCore.SqlServer"' with options: "None" (9958f5bb)
2019-11-27T10:57:36.9354614+07:00 8000000e-0004-ff00-b63f-84710c7967bb [INF] Executing action method "Admin_Core.Controllers.AccountController.Profile (Admin-Core)" - Validation state: Valid (dad538d7)
2019-11-27T10:57:37.0190091+07:00 8000000e-0004-ff00-b63f-84710c7967bb [INF] Executed DbCommand ("63"ms) [Parameters=["@__get_Item_0='?' (DbType = Int32)"], CommandType='Text', CommandTimeout='30']"
""SELECT TOP(1) [e].[ID], [e].[DoB], [e].[Email], [e].[EmailOptIn], [e].[Gender], [e].[IsDeleted], [e].[MobileNumber], [e].[Name], [e].[Password]
FROM [Users] AS [e]
WHERE [e].[ID] = @__get_Item_0" (0723d8ff)
2019-11-27T10:57:37.0302815+07:00 8000000e-0004-ff00-b63f-84710c7967bb [INF] Executed action method "Admin_Core.Controllers.AccountController.Profile (Admin-Core)", returned result "Microsoft.AspNetCore.Mvc.OkObjectResult" in 92.0319ms. (50a9e262)
2019-11-27T10:57:37.0322179+07:00 8000000e-0004-ff00-b63f-84710c7967bb [INF] Executing ObjectResult, writing value of type '"Admin_Core.Models.ApiResponseModel"'. (8a1b66c8)
2019-11-27T10:57:37.0343054+07:00 8000000e-0004-ff00-b63f-84710c7967bb [INF] Executed action "Admin_Core.Controllers.AccountController.Profile (Admin-Core)" in 112.5613ms (afa2e885)
2019-11-27T10:57:37.0365308+07:00 8000000e-0004-ff00-b63f-84710c7967bb [INF] Executed endpoint '"Admin_Core.Controllers.AccountController.Profile (Admin-Core)"' (99874f2b)
2019-11-27T10:57:37.0382624+07:00 8000000e-0004-ff00-b63f-84710c7967bb [INF] Request finished in 151.1586ms 200 application/json; charset=utf-8 (791a596a)
2019-11-27T10:59:00.8449812+07:00 80000006-0002-fd00-b63f-84710c7967bb [INF] Request starting HTTP/2.0 PUT https://localhost:44360/api/accounts application/json-patch+json 162 (ca22a1cb)
2019-11-27T10:59:00.8466876+07:00 80000006-0002-fd00-b63f-84710c7967bb [INF] CORS policy execution successful. (5409d6ef)
2019-11-27T10:59:00.8485786+07:00 80000006-0002-fd00-b63f-84710c7967bb [INF] Successfully validated the token. (60169667)
2019-11-27T10:59:00.8503589+07:00 80000006-0002-fd00-b63f-84710c7967bb [INF] Executing endpoint '"Admin_Core.Controllers.AccountController.UpdateProfile (Admin-Core)"' (500cc934)
2019-11-27T10:59:00.8613045+07:00 80000006-0002-fd00-b63f-84710c7967bb [INF] Route matched with "{action = \"UpdateProfile\", controller = \"Account\"}". Executing controller action with signature "Microsoft.AspNetCore.Mvc.IActionResult UpdateProfile(Admin_Core.Models.AccountModels.UpdateProfileModel)" on controller "Admin_Core.Controllers.AccountController" ("Admin-Core"). (122b2fdf)
2019-11-27T10:59:00.8638400+07:00 80000006-0002-fd00-b63f-84710c7967bb [INF] Authorization was successful. (0d575a54)
2019-11-27T10:59:00.8678763+07:00 80000006-0002-fd00-b63f-84710c7967bb [INF] Entity Framework Core "2.2.6-servicing-10079" initialized '"AdminDataContext"' using provider '"Microsoft.EntityFrameworkCore.SqlServer"' with options: "None" (9958f5bb)
2019-11-27T10:59:00.8698809+07:00 80000006-0002-fd00-b63f-84710c7967bb [INF] Entity Framework Core "2.2.6-servicing-10079" initialized '"AdminDataContext"' using provider '"Microsoft.EntityFrameworkCore.SqlServer"' with options: "None" (9958f5bb)
2019-11-27T10:59:00.8835403+07:00 80000006-0002-fd00-b63f-84710c7967bb [INF] Executing ObjectResult, writing value of type '"Microsoft.AspNetCore.Mvc.ValidationProblemDetails"'. (8a1b66c8)
2019-11-27T10:59:00.8949384+07:00 80000006-0002-fd00-b63f-84710c7967bb [INF] Executed action "Admin_Core.Controllers.AccountController.UpdateProfile (Admin-Core)" in 28.7397ms (afa2e885)
2019-11-27T10:59:00.8983659+07:00 80000006-0002-fd00-b63f-84710c7967bb [INF] Executed endpoint '"Admin_Core.Controllers.AccountController.UpdateProfile (Admin-Core)"' (99874f2b)
2019-11-27T10:59:00.9002664+07:00 80000006-0002-fd00-b63f-84710c7967bb [INF] Request finished in 55.7758ms 400 application/problem+json; charset=utf-8 (791a596a)
2019-11-27T11:06:10.7501650+07:00 80000006-0005-ff00-b63f-84710c7967bb [INF] Request starting HTTP/2.0 GET https://localhost:44360/swagger/index.html   (ca22a1cb)
2019-11-27T11:06:10.9263300+07:00 80000006-0005-ff00-b63f-84710c7967bb [INF] Request finished in 179.1748ms 200 text/html (791a596a)
2019-11-27T11:06:11.3105308+07:00 80000004-0000-fd00-b63f-84710c7967bb [INF] Request starting HTTP/2.0 GET https://localhost:44360/swagger/v1/swagger.json   (ca22a1cb)
2019-11-27T11:06:11.4620544+07:00 80000004-0000-fd00-b63f-84710c7967bb [INF] Request finished in 151.4141ms 200 application/json;charset=utf-8 (791a596a)
2019-11-27T11:08:56.9413308+07:00 80000006-0000-fd00-b63f-84710c7967bb [INF] Request starting HTTP/2.0 PUT https://localhost:44360/api/accounts application/json-patch+json 169 (ca22a1cb)
2019-11-27T11:08:56.9479070+07:00 80000006-0000-fd00-b63f-84710c7967bb [INF] CORS policy execution successful. (5409d6ef)
2019-11-27T11:08:56.9520008+07:00 80000006-0000-fd00-b63f-84710c7967bb [INF] Executing endpoint '"Admin_Core.Controllers.AccountController.UpdateProfile (Admin-Core)"' (500cc934)
2019-11-27T11:08:56.9812845+07:00 80000006-0000-fd00-b63f-84710c7967bb [INF] Route matched with "{action = \"UpdateProfile\", controller = \"Account\"}". Executing controller action with signature "Microsoft.AspNetCore.Mvc.IActionResult UpdateProfile(Admin_Core.Models.AccountModels.UpdateProfileModel)" on controller "Admin_Core.Controllers.AccountController" ("Admin-Core"). (122b2fdf)
2019-11-27T11:08:56.9915050+07:00 80000006-0000-fd00-b63f-84710c7967bb [INF] Authorization failed. (b15dd539)
2019-11-27T11:08:56.9945886+07:00 80000006-0000-fd00-b63f-84710c7967bb [INF] Authorization failed for the request at filter '"Microsoft.AspNetCore.Mvc.Authorization.AuthorizeFilter"'. (8b6446cb)
2019-11-27T11:08:57.0016521+07:00 80000006-0000-fd00-b63f-84710c7967bb [INF] Executing ChallengeResult with authentication schemes ([]). (f3dca807)
2019-11-27T11:08:57.0081782+07:00 80000006-0000-fd00-b63f-84710c7967bb [INF] AuthenticationScheme: "Bearer" was challenged. (d45f1f38)
2019-11-27T11:08:57.0149096+07:00 80000006-0000-fd00-b63f-84710c7967bb [INF] Executed action "Admin_Core.Controllers.AccountController.UpdateProfile (Admin-Core)" in 27.0953ms (afa2e885)
2019-11-27T11:08:57.0167339+07:00 80000006-0000-fd00-b63f-84710c7967bb [INF] Executed endpoint '"Admin_Core.Controllers.AccountController.UpdateProfile (Admin-Core)"' (99874f2b)
2019-11-27T11:08:57.0227974+07:00 80000006-0000-fd00-b63f-84710c7967bb [INF] Request finished in 81.6651ms 401  (791a596a)
2019-11-27T11:09:18.8726765+07:00 8000000e-0006-fb00-b63f-84710c7967bb [INF] Request starting HTTP/2.0 POST https://localhost:44360/api/accounts/login application/json-patch+json 54 (ca22a1cb)
2019-11-27T11:09:18.8750651+07:00 8000000e-0006-fb00-b63f-84710c7967bb [INF] CORS policy execution successful. (5409d6ef)
2019-11-27T11:09:18.8872641+07:00 8000000e-0006-fb00-b63f-84710c7967bb [INF] Executing endpoint '"Admin_Core.Controllers.AccountController.Login (Admin-Core)"' (500cc934)
2019-11-27T11:09:18.8968695+07:00 8000000e-0006-fb00-b63f-84710c7967bb [INF] Route matched with "{action = \"Login\", controller = \"Account\"}". Executing controller action with signature "Microsoft.AspNetCore.Mvc.IActionResult Login(Admin_Core.Models.AccountModels.LoginModel)" on controller "Admin_Core.Controllers.AccountController" ("Admin-Core"). (122b2fdf)
2019-11-27T11:09:19.2375501+07:00 8000000e-0006-fb00-b63f-84710c7967bb [INF] Entity Framework Core "2.2.6-servicing-10079" initialized '"AdminDataContext"' using provider '"Microsoft.EntityFrameworkCore.SqlServer"' with options: "None" (9958f5bb)
2019-11-27T11:09:19.2556481+07:00 8000000e-0006-fb00-b63f-84710c7967bb [INF] Entity Framework Core "2.2.6-servicing-10079" initialized '"AdminDataContext"' using provider '"Microsoft.EntityFrameworkCore.SqlServer"' with options: "None" (9958f5bb)
2019-11-27T11:09:19.3146769+07:00 8000000e-0006-fb00-b63f-84710c7967bb [INF] Executing action method "Admin_Core.Controllers.AccountController.Login (Admin-Core)" - Validation state: Valid (dad538d7)
2019-11-27T11:09:20.0848755+07:00 8000000e-0006-fb00-b63f-84710c7967bb [INF] Executed DbCommand ("69"ms) [Parameters=["@__email_0='?' (Size = 256)"], CommandType='Text', CommandTimeout='30']"
""SELECT TOP(1) [item].[ID], [item].[DoB], [item].[Email], [item].[EmailOptIn], [item].[Gender], [item].[IsDeleted], [item].[MobileNumber], [item].[Name], [item].[Password]
FROM [Users] AS [item]
WHERE ([item].[IsDeleted] = 0) AND ([item].[Email] = @__email_0)" (0723d8ff)
2019-11-27T11:09:20.1554209+07:00 8000000e-0006-fb00-b63f-84710c7967bb [INF] Executed action method "Admin_Core.Controllers.AccountController.Login (Admin-Core)", returned result "Microsoft.AspNetCore.Mvc.OkObjectResult" in 835.2407ms. (50a9e262)
2019-11-27T11:09:20.1651256+07:00 8000000e-0006-fb00-b63f-84710c7967bb [INF] Executing ObjectResult, writing value of type '"Admin_Core.Models.ApiResponseModel"'. (8a1b66c8)
2019-11-27T11:09:20.1838671+07:00 8000000e-0006-fb00-b63f-84710c7967bb [INF] Executed action "Admin_Core.Controllers.AccountController.Login (Admin-Core)" in 1278.3356ms (afa2e885)
2019-11-27T11:09:20.1865364+07:00 8000000e-0006-fb00-b63f-84710c7967bb [INF] Executed endpoint '"Admin_Core.Controllers.AccountController.Login (Admin-Core)"' (99874f2b)
2019-11-27T11:09:20.1887799+07:00 8000000e-0006-fb00-b63f-84710c7967bb [INF] Request finished in 1316.6225ms 200 application/json; charset=utf-8 (791a596a)
2019-11-27T11:09:43.8664684+07:00 80000010-0006-fb00-b63f-84710c7967bb [INF] Request starting HTTP/2.0 PUT https://localhost:44360/api/accounts application/json-patch+json 169 (ca22a1cb)
2019-11-27T11:09:43.8683956+07:00 80000010-0006-fb00-b63f-84710c7967bb [INF] CORS policy execution successful. (5409d6ef)
2019-11-27T11:09:43.8809711+07:00 80000010-0006-fb00-b63f-84710c7967bb [INF] Successfully validated the token. (60169667)
2019-11-27T11:09:43.8845961+07:00 80000010-0006-fb00-b63f-84710c7967bb [INF] Executing endpoint '"Admin_Core.Controllers.AccountController.UpdateProfile (Admin-Core)"' (500cc934)
2019-11-27T11:09:43.8870044+07:00 80000010-0006-fb00-b63f-84710c7967bb [INF] Route matched with "{action = \"UpdateProfile\", controller = \"Account\"}". Executing controller action with signature "Microsoft.AspNetCore.Mvc.IActionResult UpdateProfile(Admin_Core.Models.AccountModels.UpdateProfileModel)" on controller "Admin_Core.Controllers.AccountController" ("Admin-Core"). (122b2fdf)
2019-11-27T11:09:43.8898609+07:00 80000010-0006-fb00-b63f-84710c7967bb [INF] Authorization was successful. (0d575a54)
2019-11-27T11:09:43.8938108+07:00 80000010-0006-fb00-b63f-84710c7967bb [INF] Entity Framework Core "2.2.6-servicing-10079" initialized '"AdminDataContext"' using provider '"Microsoft.EntityFrameworkCore.SqlServer"' with options: "None" (9958f5bb)
2019-11-27T11:09:43.8961495+07:00 80000010-0006-fb00-b63f-84710c7967bb [INF] Entity Framework Core "2.2.6-servicing-10079" initialized '"AdminDataContext"' using provider '"Microsoft.EntityFrameworkCore.SqlServer"' with options: "None" (9958f5bb)
2019-11-27T11:09:43.9100223+07:00 80000010-0006-fb00-b63f-84710c7967bb [INF] Executing action method "Admin_Core.Controllers.AccountController.UpdateProfile (Admin-Core)" - Validation state: Valid (dad538d7)
2019-11-27T11:09:43.9928360+07:00 80000010-0006-fb00-b63f-84710c7967bb [INF] Executed DbCommand ("60"ms) [Parameters=["@__get_Item_0='?' (DbType = Int32)"], CommandType='Text', CommandTimeout='30']"
""SELECT TOP(1) [e].[ID], [e].[DoB], [e].[Email], [e].[EmailOptIn], [e].[Gender], [e].[IsDeleted], [e].[MobileNumber], [e].[Name], [e].[Password]
FROM [Users] AS [e]
WHERE [e].[ID] = @__get_Item_0" (0723d8ff)
2019-11-27T11:09:44.1839625+07:00 80000010-0006-fb00-b63f-84710c7967bb [INF] Executed DbCommand ("79"ms) [Parameters=["@p8='?' (DbType = Int32), @p0='?' (DbType = DateTime2), @p1='?' (Size = 256), @p2='?' (Size = 256), @p3='?' (DbType = Int32), @p4='?' (DbType = Boolean), @p5='?' (Size = 16), @p6='?' (Size = 256), @p7='?' (Size = 128)"], CommandType='Text', CommandTimeout='30']"
""SET NOCOUNT ON;
UPDATE [Users] SET [DoB] = @p0, [Email] = @p1, [EmailOptIn] = @p2, [Gender] = @p3, [IsDeleted] = @p4, [MobileNumber] = @p5, [Name] = @p6, [Password] = @p7
WHERE [ID] = @p8;
SELECT @@ROWCOUNT;" (0723d8ff)
2019-11-27T11:09:44.2647138+07:00 80000010-0006-fb00-b63f-84710c7967bb [INF] Executed action method "Admin_Core.Controllers.AccountController.UpdateProfile (Admin-Core)", returned result "Microsoft.AspNetCore.Mvc.OkObjectResult" in 350.8224ms. (50a9e262)
2019-11-27T11:09:44.2685865+07:00 80000010-0006-fb00-b63f-84710c7967bb [INF] Executing ObjectResult, writing value of type '"Admin_Core.Models.ApiResponseModel"'. (8a1b66c8)
2019-11-27T11:09:44.2733490+07:00 80000010-0006-fb00-b63f-84710c7967bb [INF] Executed action "Admin_Core.Controllers.AccountController.UpdateProfile (Admin-Core)" in 382.6335ms (afa2e885)
2019-11-27T11:09:44.2791258+07:00 80000010-0006-fb00-b63f-84710c7967bb [INF] Executed endpoint '"Admin_Core.Controllers.AccountController.UpdateProfile (Admin-Core)"' (99874f2b)
2019-11-27T11:09:44.2826825+07:00 80000010-0006-fb00-b63f-84710c7967bb [INF] Request finished in 414.8027ms 200 application/json; charset=utf-8 (791a596a)
